EEMB Data Management Workshop - 4 Cleaning
…
4.1 Clean it up

library(tidyverse)
library(janitor)
library(here)

global_catch <- read_csv(here("data", # data is in the "data" folder in this repository
                         "global-fishery-catch-by-sector.csv")) # file name

global_catch %>% 
  # new function: clean_names
  # makes the column names nicer! compare this with the column names from `colnames(global_catch)` output from above
  clean_names()

# A tibble: 61 × 8
   entity code      year artisanal_small_scale…¹ discards industrial_large_sca…²
   <chr>  <chr>    <dbl>                   <dbl>    <dbl>                  <dbl>
 1 World  OWID_WRL  1950                 7526795  5874170               14566338
 2 World  OWID_WRL  1951                 8278304  6278225               15417937
 3 World  OWID_WRL  1952                 8272109  7230311               16463942
 4 World  OWID_WRL  1953                 8469284  7172937               17163789
 5 World  OWID_WRL  1954                 9226926  8012930               18340199
 6 World  OWID_WRL  1955                 9545554  8340179               18728089
 7 World  OWID_WRL  1956                10303408  8692551               19902604
 8 World  OWID_WRL  1957                10425695  8998732               20030089
 9 World  OWID_WRL  1958                10172920  9255992               20520801
10 World  OWID_WRL  1959                10385711  9908003               23422702
# ℹ 51 more rows
# ℹ abbreviated names: ¹​artisanal_small_scale_commercial,
#   ²​industrial_large_scale_commercial
# ℹ 2 more variables: recreational <dbl>, subsistence <dbl>

global_catch %>% 
  clean_names() %>% # same as above

  # new function: mutate
  # create new columns to calculate catch divided by 1000000
  mutate(artisanal = artisanal_small_scale_commercial/1000000,
         industrial = industrial_large_scale_commercial/1000000)

# A tibble: 61 × 10
   entity code      year artisanal_small_scale…¹ discards industrial_large_sca…²
   <chr>  <chr>    <dbl>                   <dbl>    <dbl>                  <dbl>
 1 World  OWID_WRL  1950                 7526795  5874170               14566338
 2 World  OWID_WRL  1951                 8278304  6278225               15417937
 3 World  OWID_WRL  1952                 8272109  7230311               16463942
 4 World  OWID_WRL  1953                 8469284  7172937               17163789
 5 World  OWID_WRL  1954                 9226926  8012930               18340199
 6 World  OWID_WRL  1955                 9545554  8340179               18728089
 7 World  OWID_WRL  1956                10303408  8692551               19902604
 8 World  OWID_WRL  1957                10425695  8998732               20030089
 9 World  OWID_WRL  1958                10172920  9255992               20520801
10 World  OWID_WRL  1959                10385711  9908003               23422702
# ℹ 51 more rows
# ℹ abbreviated names: ¹​artisanal_small_scale_commercial,
#   ²​industrial_large_scale_commercial
# ℹ 4 more variables: recreational <dbl>, subsistence <dbl>, artisanal <dbl>,
#   industrial <dbl>

global_catch %>% 
  clean_names() %>% 
  mutate(artisanal = artisanal_small_scale_commercial/1000000,
         industrial = industrial_large_scale_commercial/1000000) %>% # same as above
  
  # new function: select
  # select the columns you're interested in 
  select(year, artisanal, industrial)

# A tibble: 61 × 3
    year artisanal industrial
   <dbl>     <dbl>      <dbl>
 1  1950      7.53       14.6
 2  1951      8.28       15.4
 3  1952      8.27       16.5
 4  1953      8.47       17.2
 5  1954      9.23       18.3
 6  1955      9.55       18.7
 7  1956     10.3        19.9
 8  1957     10.4        20.0
 9  1958     10.2        20.5
10  1959     10.4        23.4
# ℹ 51 more rows

global_catch %>% 
  clean_names() %>% 
  mutate(artisanal = artisanal_small_scale_commercial/1000000,
         industrial = industrial_large_scale_commercial/1000000) %>% 
  select(year, artisanal, industrial) %>% # same as above
  
  # new function: pivot_longer
  # put the data frame in long format: each row is an observation
  # in this case, each row is a fishery with some catch (in million tons) in a given year
  pivot_longer(cols = artisanal:industrial)

# A tibble: 122 × 3
    year name       value
   <dbl> <chr>      <dbl>
 1  1950 artisanal   7.53
 2  1950 industrial 14.6 
 3  1951 artisanal   8.28
 4  1951 industrial 15.4 
 5  1952 artisanal   8.27
 6  1952 industrial 16.5 
 7  1953 artisanal   8.47
 8  1953 industrial 17.2 
 9  1954 artisanal   9.23
10  1954 industrial 18.3 
# ℹ 112 more rows

global_catch %>% 
  clean_names() %>% 
  mutate(artisanal = artisanal_small_scale_commercial/1000000,
         industrial = industrial_large_scale_commercial/1000000) %>% 
  select(year, artisanal, industrial) %>% 
  pivot_longer(cols = artisanal:industrial) %>% # same as above
  
  # new function: rename
  # renames columns so that they are easier to understand
  # arguments: "new name" = "old name"
  rename(catch_mil = value,
         fishery_type = name) 

# A tibble: 122 × 3
    year fishery_type catch_mil
   <dbl> <chr>            <dbl>
 1  1950 artisanal         7.53
 2  1950 industrial       14.6 
 3  1951 artisanal         8.28
 4  1951 industrial       15.4 
 5  1952 artisanal         8.27
 6  1952 industrial       16.5 
 7  1953 artisanal         8.47
 8  1953 industrial       17.2 
 9  1954 artisanal         9.23
10  1954 industrial       18.3 
# ℹ 112 more rows
…
  # new function: mutate with case_when
  # creates new column of full names for fisheries
  mutate(fishery_full_name = case_when(
    fishery_type == "artisanal" ~ "Artisanal fishery",
    fishery_type == "industrial" ~ "Industrial fishery"
  ))

# A tibble: 122 × 4
    year fishery_type catch_mil fishery_full_name 
   <dbl> <chr>            <dbl> <chr>             
 1  1950 artisanal         7.53 Artisanal fishery 
 2  1950 industrial       14.6  Industrial fishery
 3  1951 artisanal         8.28 Artisanal fishery 
 4  1951 industrial       15.4  Industrial fishery
 5  1952 artisanal         8.27 Artisanal fishery 
 6  1952 industrial       16.5  Industrial fishery
 7  1953 artisanal         8.47 Artisanal fishery 
 8  1953 industrial       17.2  Industrial fishery
 9  1954 artisanal         9.23 Artisanal fishery 
10  1954 industrial       18.3  Industrial fishery
# ℹ 112 more rows
…
  # new function: filter
  # filters data frame for observations after 1980
  filter(year > 1980)

# A tibble: 60 × 4
    year fishery_type catch_mil fishery_full_name 
   <dbl> <chr>            <dbl> <chr>             
 1  1981 artisanal         15.3 Artisanal fishery 
 2  1981 industrial        62.5 Industrial fishery
 3  1982 artisanal         15.2 Artisanal fishery 
 4  1982 industrial        67.5 Industrial fishery
 5  1983 artisanal         15.3 Artisanal fishery 
 6  1983 industrial        65.7 Industrial fishery
 7  1984 artisanal         16.1 Artisanal fishery 
 8  1984 industrial        70.6 Industrial fishery
 9  1985 artisanal         16.4 Artisanal fishery 
10  1985 industrial        73.5 Industrial fishery
# ℹ 50 more rows
…
